Sta-518 Self Reflection
…
# Read in csv files with read_csv()
college<- read_csv("data/recent-grads.csv")

## 
##  Column specification 
## cols(
##   .default = col_double(),
##   major = col_character(),
##   major_category = col_character()
## )
##  Use `spec()` for the full column specifications.

college

## # A tibble: 173 x 21
##     rank major_code major           major_category total sample_size   men women
##    <dbl>      <dbl> <chr>           <chr>          <dbl>       <dbl> <dbl> <dbl>
##  1     1       2419 Petroleum Engi Engineering     2339          36  2057   282
##  2     2       2416 Mining And Min Engineering      756           7   679    77
##  3     3       2415 Metallurgical  Engineering      856           3   725   131
##  4     4       2417 Naval Architec Engineering     1258          16  1123   135
##  5     5       2405 Chemical Engin Engineering    32260         289 21239 11021
##  6     6       2418 Nuclear Engine Engineering     2573          17  2200   373
##  7     7       6202 Actuarial Scie Business        3777          51  2110  1667
##  8     8       5001 Astronomy And  Physical Scie  1792          10   832   960
##  9     9       2414 Mechanical Eng Engineering    91227        1029 80320 10907
## 10    10       2408 Electrical Eng Engineering    81527         631 65511 16016
## #  with 163 more rows, and 13 more variables: sharewomen <dbl>,
## #   employed <dbl>, employed_fulltime <dbl>, employed_parttime <dbl>,
## #   employed_fulltime_yearround <dbl>, unemployed <dbl>,
## #   unemployment_rate <dbl>, p25th <dbl>, median <dbl>, p75th <dbl>,
## #   college_jobs <dbl>, non_college_jobs <dbl>, low_wage_jobs <dbl>

# Read in xlsx files with read_excel()
fxlsx <- read_excel("data/loyn.xlsx")
fxlsx

## # A tibble: 56 x 8
##     Site ABUND  AREA  DIST LDIST YR.ISOL GRAZE   ALT
##    <dbl> <dbl> <dbl> <dbl> <dbl>   <dbl> <dbl> <dbl>
##  1     1   5.3   0.1    39    39    1968     2   160
##  2     2   2     0.5   234   234    1920     5    60
##  3     3   1.5   0.5   104   311    1900     5   140
##  4     4  17.1   1      66    66    1966     3   160
##  5     5  13.8   1     246   246    1918     5   140
##  6     6  14.1   1     234   285    1965     3   130
##  7     7   3.8   1     467   467    1955     5    90
##  8     8   2.2   1     284  1829    1920     5    60
##  9     9   3.3   1     156   156    1965     4   130
## 10    10   3     1     311   571    1900     5   130
## #  with 46 more rows
…
## 
##  Column specification 
## cols(
##   bsal = col_double(),
##   ansal = col_double(),
##   sex = col_character(),
##   senior = col_double(),
##   age = col_double(),
##   educ = col_double(),
##   exper = col_double()
## )

banksal

## # A tibble: 93 x 7
##     bsal  ansal sex   senior   age  educ exper
##    <dbl>  <dbl> <chr>  <dbl> <dbl> <dbl> <dbl>
##  1  5040 12420  MALE      96   329    15  14  
##  2  6300 12060  MALE      82   357    15  72  
##  3  6000 15120  MALE      67   315    15  35.5
##  4  6000 16320. MALE      97   354    12  24  
##  5  6000 12300  MALE      66   351    12  56  
##  6  6840 10380  MALE      92   374    15  41.5
##  7  8100 13980. MALE      66   369    16  54.5
##  8  6000 10140  MALE      82   363    12  32  
##  9  6000 12360  MALE      88   555    12 252  
## 10  6900 10920  MALE      75   416    15 132  
## #  with 83 more rows

# reading a large data set 
nls <- read_dta(file="https://github.com/ozanj/rclass/raw/master/data/nls72/nls72stu_percontor_vars.dta")
nls

## # A tibble: 22,652 x 89
##       id schcode    bysex    srfq2a    srfq2d     fsex schlmrkr     ssex   crace
##    <dbl>   <dbl> <dbl+lb> <dbl+lbl> <dbl+lbl> <dbl+lb> <dbl+lb> <dbl+lb> <dbl+l>
##  1    18    3000 2 [2. f 98 [98.  98 [98.  NA       1 [1. 1  1 [1.  4 [4. 
##  2    67    3000 1 [1. m 98 [98.  98 [98.  NA       0 [0. N  1 [1.  2 [2. 
##  3    83    2518 2 [2. f 71 [71.  98 [98.   2 [2.  1 [1. 1 99 [99. 7 [7. 
##  4   174    2911 1 [1. m 98 [98.  71 [71.  NA       1 [1. 1  1 [1.  7 [7. 
##  5   190     800 2 [2. f 98 [98.  98 [98.   2 [2.  1 [1. 1  2 [2.  7 [7. 
##  6   232    7507 2 [2. f 98 [98.  98 [98.   2 [2.  1 [1. 1  2 [2.  7 [7. 
##  7   315    3000 1 [1. m 72 [72.  71 [71.  NA       0 [0. N  1 [1.  7 [7. 
##  8   380    9516 1 [1. m 98 [98.  98 [98.  NA       1 [1. 1  1 [1.  7 [7. 
##  9   414    2518 1 [1. m 98 [98.  98 [98.  NA       0 [0. N 98 [98. 7 [7. 
## 10   430    2701 1 [1. m 98 [98.  98 [98.  NA       1 [1. 1  1 [1.  4 [4. 
## #  with 22,642 more rows, and 80 more variables: csex <dbl+lbl>,
## #   tfusex <dbl+lbl>, ft67 <dbl+lbl>, ftfusex <dbl+lbl>, fi29 <dbl+lbl>,
## #   fi39 <dbl+lbl>, fi43 <dbl+lbl>, fi52a <dbl+lbl>, fi52b <dbl+lbl>,
## #   fi52c <dbl+lbl>, fi52d <dbl+lbl>, fi52e <dbl+lbl>, fi52f <dbl+lbl>,
## #   race86 <dbl+lbl>, birthmon <dbl>, birthday <dbl>, birthyr <dbl>,
## #   srfq0 <dbl>, srfq2b <dbl>, srfq2c <dbl>, srfq2e <dbl>, srfq2f <dbl>,
## #   srfq2g <dbl>, srfq2h <dbl>, srfq2i <dbl>, scvocsc <dbl>, scpic1 <dbl>,
## #   scpic2 <dbl>, scpict <dbl>, scrdsc <dbl>, sclgsc <dbl>, scmatsc <dbl>,
## #   scmscm1 <dbl>, scmscm2 <dbl>, scmscm3 <dbl>, scmscmt <dbl>, srifprk <dbl>,
…
# I am taking the above children table to perform data isolation operations
# filter operation

filter(children, sex == "M" & age == "15")

##     names sex age weight height
## 1  RONALD   M  15     67    133
## 2 WILLIAM   M  15     66    112

# I am taking the above banksal table to perform data isolation operations
fbanksal <- filter(banksal, bsal >= 6000 & senior >= 60)
fbanksal

## # A tibble: 26 x 7
##     bsal  ansal sex   senior   age  educ exper
##    <dbl>  <dbl> <chr>  <dbl> <dbl> <dbl> <dbl>
##  1  6300 12060  MALE      82   357    15  72  
##  2  6000 15120  MALE      67   315    15  35.5
##  3  6000 16320. MALE      97   354    12  24  
##  4  6000 12300  MALE      66   351    12  56  
##  5  6840 10380  MALE      92   374    15  41.5
##  6  8100 13980. MALE      66   369    16  54.5
##  7  6000 10140  MALE      82   363    12  32  
##  8  6000 12360  MALE      88   555    12 252  
##  9  6900 10920  MALE      75   416    15 132  
## 10  6900 10920  MALE      89   481    12 175  
## #  with 16 more rows
…
## Warning: Expected 2 pieces. Additional pieces discarded in 4 rows [16, 47, 67,
## 76].

## Warning: Expected 2 pieces. Missing pieces filled with `NA` in 71 rows [1, 2, 4,
## 5, 6, 7, 9, 10, 11, 12, 13, 14, 15, 17, 18, 19, 20, 21, 22, 23, ...].

reducing_dataset

## # A tibble: 103 x 1
##    skin_color
##    <chr>     
##  1 fair      
##  2 gold      
##  3 white     
##  4 blue      
##  5 white     
##  6 light     
##  7 light     
##  8 light     
##  9 white     
## 10 red       
## #  with 93 more rows
…
Creating my own functions

generate_n_samples <- function(n){
  tibble(
    normal_distribution = rnorm(n = n, mean = 50, sd = 10),
    exponential_distribution = rexp(n = n, rate = 0.2),
    binomial_distribution = rbinom(n = n, size = 100, prob = 0.25),
    uniform_distribution = runif(n = n, min = 10, max = 20)
  )
}

generate_n_samples(50)

## # A tibble: 50 x 4
##    normal_distributi exponential_distrib binomial_distribu uniform_distribut
##                 <dbl>                <dbl>              <int>              <dbl>
##  1               58.1                0.887                 29               19.5
##  2               47.4                1.64                  26               13.8
##  3               51.7               24.9                   32               14.8
##  4               54.0                7.16                  20               15.4
##  5               58.1                8.22                  25               18.1
##  6               49.9                1.67                  17               12.7
##  7               49.1                5.25                  31               18.6
##  8               44.9                8.74                  26               11.5
##  9               55.5                1.23                  25               17.0
## 10               51.2                3.66                  28               18.6
## #  with 40 more rows
…
